toyup.vcd
$date
	Mon Apr 28 17:40:43 2025
$end
$version
	Icarus Verilog
$end
$timescale
	1ps
$end
$scope module toyup_tb $end
$var wire 8 ! OPORT [7:0] $end
$var reg 8 " IPORT [7:0] $end
$var reg 1 # clk $end
$var reg 1 $ rst $end
$scope module Microprocessor $end
$var wire 8 % IPORT [7:0] $end
$var wire 8 & bus [7:0] $end
$var wire 1 # clk $end
$var wire 1 $ rst $end
$var wire 8 ' add [7:0] $end
$var wire 3 ( STEP [2:0] $end
$var wire 8 ) OPORT [7:0] $end
$var wire 8 * INSTRUCTION [7:0] $end
$var wire 13 + CW [12:0] $end
$scope module A $end
$var wire 8 , D [7:0] $end
$var wire 8 - O [7:0] $end
$var wire 1 # clk $end
$var wire 1 . en $end
$var wire 1 / ldacc $end
$var wire 1 0 oe $end
$var wire 1 1 cout $end
$var wire 8 2 Y [7:0] $end
$var wire 8 3 X [7:0] $end
$var reg 8 4 Q [7:0] $end
$upscope $end
$scope module B $end
$var wire 8 5 D [7:0] $end
$var wire 8 6 O [7:0] $end
$var wire 1 # clk $end
$var wire 1 7 en $end
$var wire 1 8 oe $end
$var reg 8 9 Q [7:0] $end
$upscope $end
$scope module I $end
$var wire 8 : D [7:0] $end
$var wire 8 ; O [7:0] $end
$var wire 1 # clk $end
$var wire 1 < en $end
$var wire 1 = oe $end
$var reg 8 > Q [7:0] $end
$upscope $end
$scope module IC $end
$var wire 1 # clk $end
$var wire 1 ? clr $end
$var wire 1 @ en $end
$var wire 1 $ rst $end
$var reg 3 A Q [2:0] $end
$upscope $end
$scope module IR $end
$var wire 8 B D [7:0] $end
$var wire 1 # clk $end
$var wire 1 C en $end
$var wire 1 $ rst $end
$var reg 8 D Q [7:0] $end
$upscope $end
$scope module MEM $end
$var wire 8 E O [7:0] $end
$var wire 1 F oe $end
$var wire 8 G add [7:0] $end
$var integer 32 H i [31:0] $end
$upscope $end
$scope module O $end
$var wire 8 I D [7:0] $end
$var wire 1 # clk $end
$var wire 1 J en $end
$var wire 1 K oe $end
$var wire 8 L O [7:0] $end
$var reg 8 M Q [7:0] $end
$upscope $end
$scope module PC $end
$var wire 8 N D [7:0] $end
$var wire 1 # clk $end
$var wire 1 O en $end
$var wire 1 P ld $end
$var wire 1 $ rst $end
$var wire 9 Q sum [8:0] $end
$var wire 8 R mux [7:0] $end
$var reg 8 S Q [7:0] $end
$upscope $end
$scope module cu $end
$var wire 1 # clk $end
$var wire 8 T instr [7:0] $end
$var wire 3 U step [2:0] $end
$var wire 13 V CW [12:0] $end
$var reg 160 W OP [159:0] $end
$var reg 13 X word [12:0] $end
$upscope $end
$upscope $end
$upscope $end
$enddefinitions $end
$comment Show the parameter values. $end
$dumpall
$end
#0
$dumpvars
b0 X
bx W
b0 V
b0 U
b0 T
b11111111 S
b0 R
b100000000 Q
0P
0O
bz N
bx M
bx L
1K
0J
bz I
b1000000 H
b11111111 G
0F
bz E
b0 D
0C
bz B
b0 A
0@
0?
bx >
0=
1<
bz ;
bx :
bx 9
08
07
bz 6
bz 5
bx 4
bx 3
bz 2
x1
00
0/
0.
bz -
bz ,
b0 +
b0 *
bx )
b0 (
b11111111 '
bz &
bx %
0$
0#
bx "
bx !
$end
#5000
1#
#10000
1@
1O
b100010 +
b100010 V
b100010 X
b10011100100111101010000 W
0#
1$
#15000
b1 R
b1 Q
b0 '
b0 G
b0 S
b1 (
b1 A
b1 U
1#
#20000
b10 2
b10 &
b10 ,
b10 -
b10 5
b10 6
b10 ;
b10 B
b10 E
b10 I
b10 N
1F
1C
1?
0O
b1111 +
b1111 V
b1111 X
0#
#25000
b10 *
b10 D
b10 T
b0 (
b0 A
b0 U
1#
#30000
bz 2
bz &
bz ,
bz -
bz 5
bz 6
bz ;
bz B
bz E
bz I
bz N
0F
0C
0?
1O
b100010 +
b100010 V
b100010 X
b10011000100010000100000010000010010110000100000010011010100010101001101010110110101000001000011001010110011000101011101 W
0#
#35000
b10 R
b10 Q
b1 '
b1 G
b1 S
b1 (
b1 A
b1 U
1#
#40000
b11111111 2
b11111111 &
b11111111 ,
b11111111 -
b11111111 5
b11111111 6
b11111111 ;
b11111111 B
b11111111 E
b11111111 I
b11111111 N
1F
1.
0O
b1000000001010 +
b1000000001010 V
b1000000001010 X
0#
#45000
b11111110 3
11
b11111111 4
b10 (
b10 A
b10 U
1#
#50000
bx 3
x1
bz 2
bz &
bz ,
bz -
bz 5
bz 6
bz ;
bz B
bz E
bz I
bz N
0F
0.
1O
b100010 +
b100010 V
b100010 X
0#
#55000
b11 R
b11 Q
b10 '
b10 G
b10 S
b11 (
b11 A
b11 U
1#
#60000
b0 3
11
b1 2
b1 &
b1 ,
b1 -
b1 5
b1 6
b1 ;
b1 B
b1 E
b1 I
b1 N
1F
1C
1?
0O
b1111 +
b1111 V
b1111 X
0#
#65000
b1 *
b1 D
b1 T
b0 (
b0 A
b0 U
1#
#70000
b11111110 3
b11111111 2
b11111111 &
b11111111 ,
b11111111 -
b11111111 5
b11111111 6
b11111111 ;
b11111111 B
b11111111 E
b11111111 I
b11111111 N
0F
0C
17
10
0?
1O
b101000100010 +
b101000100010 V
b101000100010 X
b1001100010001000010000001000010001011000010000001000001 W
0#
#75000
b100 R
b11111111 9
b100 Q
b11 '
b11 G
b11 S
b1 (
b1 A
b1 U
1#
#80000
b1 3
b10 2
b10 &
b10 ,
b10 -
b10 5
b10 6
b10 ;
b10 B
b10 E
b10 I
b10 N
1F
1C
07
00
1?
0O
b1111 +
b1111 V
b1111 X
0#
#85000
b10 *
b10 D
b10 T
b0 (
b0 A
b0 U
1#
#90000
bx 3
x1
bz 2
bz &
bz ,
bz -
bz 5
bz 6
bz ;
bz B
bz E
bz I
bz N
0F
0C
0?
1O
b100010 +
b100010 V
b100010 X
b10011000100010000100000010000010010110000100000010011010100010101001101010110110101000001000011001010110011000101011101 W
0#
#95000
b101 R
b101 Q
b100 '
b100 G
b100 S
b1 (
b1 A
b1 U
1#
#100000
b11111111 3
01
b0 2
b0 &
b0 ,
b0 -
b0 5
b0 6
b0 ;
b0 B
b0 E
b0 I
b0 N
1F
1.
0O
b1000000001010 +
b1000000001010 V
b1000000001010 X
0#
#105000
b0 3
b0 4
b10 (
b10 A
b10 U
1#
#110000
bx 3
x1
bz 2
bz &
bz ,
bz -
bz 5
bz 6
bz ;
bz B
bz E
bz I
bz N
0F
0.
1O
b100010 +
b100010 V
b100010 X
0#
#115000
b110 R
b110 Q
b101 '
b101 G
b101 S
b11 (
b11 A
b11 U
1#
#120000
b100 3
01
b100 2
b100 &
b100 ,
b100 -
b100 5
b100 6
b100 ;
b100 B
b100 E
b100 I
b100 N
1F
1C
1?
0O
b1111 +
b1111 V
b1111 X
0#
#125000
b100 *
b100 D
b100 T
b0 (
b0 A
b0 U
1#
#130000
b11111111 2
b11111111 3
b11111111 &
b11111111 ,
b11111111 -
b11111111 5
b11111111 6
b11111111 ;
b11111111 B
b11111111 E
b11111111 I
b11111111 N
0F
0C
18
1/
1.
0?
1O
b1010100100010 +
b1010100100010 V
b1010100100010 X
b100000101000011010000110010000001000001001011000010000001000010 W
0#
#135000
b11111110 2
b111 R
b11111110 3
11
b11111111 4
b111 Q
b110 '
b110 G
b110 S
b1 (
b1 A
b1 U
1#
#140000
b100 3
b101 &
b101 ,
b101 -
b101 5
b101 6
b101 ;
b101 B
b101 E
b101 I
b101 N
b101 2
1F
1C
08
0/
0.
1?
0O
b1111 +
b1111 V
b1111 X
0#
#145000
b101 *
b101 D
b101 T
b0 (
b0 A
b0 U
1#
#150000
b11111110 3
b11111111 2
b11111111 &
b11111111 ,
b11111111 -
b11111111 5
b11111111 6
b11111111 ;
b11111111 B
b11111111 E
b11111111 I
b11111111 N
0F
0C
1J
10
0?
1O
b100001100010 +
b100001100010 V
b100001100010 X
b100111101010101010101000010000001000001 W
0#
#155000
b1000 R
b11111111 !
b11111111 )
b11111111 L
b11111111 M
b1000 Q
b111 '
b111 G
b111 S
b1 (
b1 A
b1 U
1#
#160000
b10 3
b11 2
b11 &
b11 ,
b11 -
b11 5
b11 6
b11 ;
b11 B
b11 E
b11 I
b11 N
1F
1C
0J
00
1?
0O
b1111 +
b1111 V
b1111 X
0#
#165000
b11 *
b11 D
b11 T
b0 (
b0 A
b0 U
1#
#170000
bx 3
x1
bz 2
bz &
bz ,
bz -
bz 5
bz 6
bz ;
bz B
bz E
bz I
bz N
0F
0C
0?
1O
b100010 +
b100010 V
b100010 X
b1001010010011010101000000100000010011010100010101001101010110110101000001000011001010110011000101011101 W
0#
#175000
b1001 R
b1001 Q
b1000 '
b1000 G
b1000 S
b1 (
b1 A
b1 U
1#
#180000
b100 3
11
b101 2
b101 &
b101 ,
b101 -
b101 5
b101 6
b101 ;
b101 B
b101 E
b101 I
b101 N
b101 R
1F
1P
b111010 +
b111010 V
b111010 X
0#
#185000
b11 3
b100 2
b100 R
b100 &
b100 ,
b100 -
b100 5
b100 6
b100 ;
b100 B
b100 E
b100 I
b100 N
b10 (
b10 A
b10 U
b110 Q
b101 '
b101 G
b101 S
1#
#190000
b110 R
1C
1?
0P
0O
b1111 +
b1111 V
b1111 X
0#
#195000
b0 (
b0 A
b0 U
b100 *
b100 D
b100 T
1#
#200000
b11111110 3
b11111111 &
b11111111 ,
b11111111 -
b11111111 5
b11111111 6
b11111111 ;
b11111111 B
b11111111 E
b11111111 I
b11111111 N
b11111110 2
0F
0C
18
1/
1.
0?
1O
b1010100100010 +
b1010100100010 V
b1010100100010 X
b100000101000011010000110010000001000001001011000010000001000010 W
0#
#205000
b11111101 2
b111 R
b11111101 3
b11111110 4
b1 (
b1 A
b1 U
b111 Q
b110 '
b110 G
b110 S
1#
#210000
b11 3
b101 &
b101 ,
b101 -
b101 5
b101 6
b101 ;
b101 B
b101 E
b101 I
b101 N
b101 2
1F
1C
08
0/
0.
1?
0O
b1111 +
b1111 V
b1111 X
0#
#215000
b0 (
b0 A
b0 U
b101 *
b101 D
b101 T
1#
#220000
b11111100 3
b11111110 2
b11111110 &
b11111110 ,
b11111110 -
b11111110 5
b11111110 6
b11111110 ;
b11111110 B
b11111110 E
b11111110 I
b11111110 N
0F
0C
1J
10
0?
1O
b100001100010 +
b100001100010 V
b100001100010 X
b100111101010101010101000010000001000001 W
0#
#225000
b1000 R
b11111110 !
b11111110 )
b11111110 L
b11111110 M
b1 (
b1 A
b1 U
b1000 Q
b111 '
b111 G
b111 S
1#
#230000
b1 3
b11 2
b11 &
b11 ,
b11 -
b11 5
b11 6
b11 ;
b11 B
b11 E
b11 I
b11 N
1F
1C
0J
00
1?
0O
b1111 +
b1111 V
b1111 X
0#
#235000
b0 (
b0 A
b0 U
b11 *
b11 D
b11 T
1#
#240000
bx 3
x1
bz 2
bz &
bz ,
bz -
bz 5
bz 6
bz ;
bz B
bz E
bz I
bz N
0F
0C
0?
1O
b100010 +
b100010 V
b100010 X
b1001010010011010101000000100000010011010100010101001101010110110101000001000011001010110011000101011101 W
0#
#245000
b1001 R
b1 (
b1 A
b1 U
b1001 Q
b1000 '
b1000 G
b1000 S
1#
#250000
b11 3
11
b101 2
b101 &
b101 ,
b101 -
b101 5
b101 6
b101 ;
b101 B
b101 E
b101 I
b101 N
b101 R
1F
1P
b111010 +
b111010 V
b111010 X
0#
#255000
b10 3
b100 2
b100 R
b100 &
b100 ,
b100 -
b100 5
b100 6
b100 ;
b100 B
b100 E
b100 I
b100 N
b110 Q
b101 '
b101 G
b101 S
b10 (
b10 A
b10 U
1#
#260000
b110 R
1C
1?
0P
0O
b1111 +
b1111 V
b1111 X
0#
#265000
b100 *
b100 D
b100 T
b0 (
b0 A
b0 U
1#
#270000
b11111101 3
b11111111 &
b11111111 ,
b11111111 -
b11111111 5
b11111111 6
b11111111 ;
b11111111 B
b11111111 E
b11111111 I
b11111111 N
b11111101 2
0F
0C
18
1/
1.
0?
1O
b1010100100010 +
b1010100100010 V
b1010100100010 X
b100000101000011010000110010000001000001001011000010000001000010 W
0#
#275000
b11111100 2
b111 R
b11111100 3
b11111101 4
b111 Q
b110 '
b110 G
b110 S
b1 (
b1 A
b1 U
1#
#280000
b10 3
b101 &
b101 ,
b101 -
b101 5
b101 6
b101 ;
b101 B
b101 E
b101 I
b101 N
b101 2
1F
1C
08
0/
0.
1?
0O
b1111 +
b1111 V
b1111 X
0#
#285000
b101 *
b101 D
b101 T
b0 (
b0 A
b0 U
1#
#290000
b11111010 3
b11111101 2
b11111101 &
b11111101 ,
b11111101 -
b11111101 5
b11111101 6
b11111101 ;
b11111101 B
b11111101 E
b11111101 I
b11111101 N
0F
0C
1J
10
0?
1O
b100001100010 +
b100001100010 V
b100001100010 X
b100111101010101010101000010000001000001 W
0#
#295000
b1000 R
b11111101 !
b11111101 )
b11111101 L
b11111101 M
b1000 Q
b111 '
b111 G
b111 S
b1 (
b1 A
b1 U
1#
#300000
b0 3
b11 2
b11 &
b11 ,
b11 -
b11 5
b11 6
b11 ;
b11 B
b11 E
b11 I
b11 N
1F
1C
0J
00
1?
0O
b1111 +
b1111 V
b1111 X
0#
#305000
b11 *
b11 D
b11 T
b0 (
b0 A
b0 U
1#
#310000
bx 3
x1
bz 2
bz &
bz ,
bz -
bz 5
bz 6
bz ;
bz B
bz E
bz I
bz N
0F
0C
0?
1O
b100010 +
b100010 V
b100010 X
b1001010010011010101000000100000010011010100010101001101010110110101000001000011001010110011000101011101 W
0#
#315000
b1001 R
b1001 Q
b1000 '
b1000 G
b1000 S
b1 (
b1 A
b1 U
1#
#320000
b10 3
11
b101 2
b101 &
b101 ,
b101 -
b101 5
b101 6
b101 ;
b101 B
b101 E
b101 I
b101 N
b101 R
1F
1P
b111010 +
b111010 V
b111010 X
0#
#325000
b1 3
b100 2
b100 R
b100 &
b100 ,
b100 -
b100 5
b100 6
b100 ;
b100 B
b100 E
b100 I
b100 N
b10 (
b10 A
b10 U
b110 Q
b101 '
b101 G
b101 S
1#
#330000
b110 R
1C
1?
0P
0O
b1111 +
b1111 V
b1111 X
0#
#335000
b0 (
b0 A
b0 U
b100 *
b100 D
b100 T
1#
#340000
b11111100 3
b11111111 &
b11111111 ,
b11111111 -
b11111111 5
b11111111 6
b11111111 ;
b11111111 B
b11111111 E
b11111111 I
b11111111 N
b11111100 2
0F
0C
18
1/
1.
0?
1O
b1010100100010 +
b1010100100010 V
b1010100100010 X
b100000101000011010000110010000001000001001011000010000001000010 W
0#
#345000
b11111011 2
b111 R
b11111011 3
b11111100 4
b1 (
b1 A
b1 U
b111 Q
b110 '
b110 G
b110 S
1#
#350000
b1 3
b101 &
b101 ,
b101 -
b101 5
b101 6
b101 ;
b101 B
b101 E
b101 I
b101 N
b101 2
1F
1C
08
0/
0.
1?
0O
b1111 +
b1111 V
b1111 X
0#
#355000
b0 (
b0 A
b0 U
b101 *
b101 D
b101 T
1#
#360000
b11111000 3
b11111100 2
b11111100 &
b11111100 ,
b11111100 -
b11111100 5
b11111100 6
b11111100 ;
b11111100 B
b11111100 E
b11111100 I
b11111100 N
0F
0C
1J
10
0?
1O
b100001100010 +
b100001100010 V
b100001100010 X
b100111101010101010101000010000001000001 W
0#
#365000
b1000 R
b11111100 !
b11111100 )
b11111100 L
b11111100 M
b1 (
b1 A
b1 U
b1000 Q
b111 '
b111 G
b111 S
1#
#370000
b11111111 3
01
b11 2
b11 &
b11 ,
b11 -
b11 5
b11 6
b11 ;
b11 B
b11 E
b11 I
b11 N
1F
1C
0J
00
1?
0O
b1111 +
b1111 V
b1111 X
0#
#375000
b0 (
b0 A
b0 U
b11 *
b11 D
b11 T
1#
#380000
bx 3
x1
bz 2
bz &
bz ,
bz -
bz 5
bz 6
bz ;
bz B
bz E
bz I
bz N
0F
0C
0?
1O
b100010 +
b100010 V
b100010 X
b1001010010011010101000000100000010011010100010101001101010110110101000001000011001010110011000101011101 W
0#
#385000
b1001 R
b1 (
b1 A
b1 U
b1001 Q
b1000 '
b1000 G
b1000 S
1#
#390000
b1 3
11
b101 2
b101 &
b101 ,
b101 -
b101 5
b101 6
b101 ;
b101 B
b101 E
b101 I
b101 N
b101 R
1F
1P
b111010 +
b111010 V
b111010 X
0#
#395000
b0 3
b100 2
b100 R
b100 &
b100 ,
b100 -
b100 5
b100 6
b100 ;
b100 B
b100 E
b100 I
b100 N
b110 Q
b101 '
b101 G
b101 S
b10 (
b10 A
b10 U
1#
#400000
b110 R
1C
1?
0P
0O
b1111 +
b1111 V
b1111 X
0#
#405000
b100 *
b100 D
b100 T
b0 (
b0 A
b0 U
1#
#410000
b11111011 3
b11111111 &
b11111111 ,
b11111111 -
b11111111 5
b11111111 6
b11111111 ;
b11111111 B
b11111111 E
b11111111 I
b11111111 N
b11111011 2
0F
0C
18
1/
1.
0?
1O
b1010100100010 +
b1010100100010 V
b1010100100010 X
b100000101000011010000110010000001000001001011000010000001000010 W
0#
#415000
b11111010 2
b111 R
b11111010 3
b11111011 4
b111 Q
b110 '
b110 G
b110 S
b1 (
b1 A
b1 U
1#
#420000
b0 3
b101 &
b101 ,
b101 -
b101 5
b101 6
b101 ;
b101 B
b101 E
b101 I
b101 N
b101 2
1F
1C
08
0/
0.
1?
0O
b1111 +
b1111 V
b1111 X
0#
#425000
b101 *
b101 D
b101 T
b0 (
b0 A
b0 U
1#
#430000
b11110110 3
b11111011 2
b11111011 &
b11111011 ,
b11111011 -
b11111011 5
b11111011 6
b11111011 ;
b11111011 B
b11111011 E
b11111011 I
b11111011 N
0F
0C
1J
10
0?
1O
b100001100010 +
b100001100010 V
b100001100010 X
b100111101010101010101000010000001000001 W
0#
#435000
b1000 R
b11111011 !
b11111011 )
b11111011 L
b11111011 M
b1000 Q
b111 '
b111 G
b111 S
b1 (
b1 A
b1 U
1#
#440000
b11111110 3
01
b11 2
b11 &
b11 ,
b11 -
b11 5
b11 6
b11 ;
b11 B
b11 E
b11 I
b11 N
1F
1C
0J
00
1?
0O
b1111 +
b1111 V
b1111 X
0#
#445000
b11 *
b11 D
b11 T
b0 (
b0 A
b0 U
1#
#450000
bx 3
x1
bz 2
bz &
bz ,
bz -
bz 5
bz 6
bz ;
bz B
bz E
bz I
bz N
0F
0C
0?
1O
b100010 +
b100010 V
b100010 X
b1001010010011010101000000100000010011010100010101001101010110110101000001000011001010110011000101011101 W
0#
#455000
b1001 R
b1001 Q
b1000 '
b1000 G
b1000 S
b1 (
b1 A
b1 U
1#
#460000
b0 3
11
b101 2
b101 &
b101 ,
b101 -
b101 5
b101 6
b101 ;
b101 B
b101 E
b101 I
b101 N
b101 R
1F
1P
b111010 +
b111010 V
b111010 X
0#
#465000
b11111111 3
01
b100 2
b100 R
b100 &
b100 ,
b100 -
b100 5
b100 6
b100 ;
b100 B
b100 E
b100 I
b100 N
b10 (
b10 A
b10 U
b110 Q
b101 '
b101 G
b101 S
1#
#470000
b110 R
1C
1?
0P
0O
b1111 +
b1111 V
b1111 X
0#
#475000
b0 (
b0 A
b0 U
b100 *
b100 D
b100 T
1#
#480000
b11111010 3
11
b11111111 &
b11111111 ,
b11111111 -
b11111111 5
b11111111 6
b11111111 ;
b11111111 B
b11111111 E
b11111111 I
b11111111 N
b11111010 2
0F
0C
18
1/
1.
0?
1O
b1010100100010 +
b1010100100010 V
b1010100100010 X
b100000101000011010000110010000001000001001011000010000001000010 W
0#
#485000
b11111001 2
b111 R
b11111001 3
b11111010 4
b1 (
b1 A
b1 U
b111 Q
b110 '
b110 G
b110 S
1#
#490000
b11111111 3
01
b101 &
b101 ,
b101 -
b101 5
b101 6
b101 ;
b101 B
b101 E
b101 I
b101 N
b101 2
1F
1C
08
0/
0.
1?
0O
b1111 +
b1111 V
b1111 X
0#
#495000
b0 (
b0 A
b0 U
b101 *
b101 D
b101 T
1#
#500000
b11110100 3
11
b11111010 2
b11111010 &
b11111010 ,
b11111010 -
b11111010 5
b11111010 6
b11111010 ;
b11111010 B
b11111010 E
b11111010 I
b11111010 N
0F
0C
1J
10
0?
1O
b100001100010 +
b100001100010 V
b100001100010 X
b100111101010101010101000010000001000001 W
0#
